<svg xmlns="http://www.w3.org/2000/svg" width="28" height="28" viewBox="0 0 28 28">
    <path fill="#FFF" fill-rule="evenodd" d="M14 19.688a5.688 5.688 0 1 1 0-11.376 5.688 5.688 0 0 1 0 11.376zm0 2.187c.725 0 1.313.588 1.313 1.313v3.5a1.313 1.313 0 0 1-2.626 0v-3.5c0-.725.588-1.313 1.313-1.313zM14 0c.725 0 1.313.588 1.313 1.313v3.5a1.313 1.313 0 0 1-2.626 0v-3.5C12.688.588 13.275 0 14 0zm14 14.438c0 .724-.588 1.312-1.313 1.312h-3.5a1.313 1.313 0 0 1 0-2.625h3.5c.725 0 1.313.588 1.313 1.313zm-21.875 0c0 .724-.588 1.312-1.313 1.312h-3.5a1.313 1.313 0 0 1 0-2.625h3.5c.725 0 1.313.588 1.313 1.313zm2.435 4.821a1.313 1.313 0 0 1 0 1.856L6.085 23.59a1.312 1.312 0 1 1-1.856-1.856l2.475-2.475a1.313 1.313 0 0 1 1.856 0zM24.028 3.791a1.312 1.312 0 0 1 0 1.856l-2.475 2.475a1.313 1.313 0 0 1-1.856-1.856l2.474-2.475a1.312 1.312 0 0 1 1.857 0zm-.31 20.108a1.312 1.312 0 0 1-1.856 0l-2.475-2.474a1.312 1.312 0 1 1 1.856-1.857l2.475 2.475a1.313 1.313 0 0 1 0 1.856zM8.25 8.432a1.313 1.313 0 0 1-1.856 0L3.92 5.957A1.313 1.313 0 0 1 5.775 4.1L8.25 6.575a1.313 1.313 0 0 1 0 1.857z"/>
</svg>
