<svg xmlns="http://www.w3.org/2000/svg" width="50" height="50" viewBox="0 0 50 50">
    <g fill="none" fill-rule="evenodd">
        <path d="M0 0h50v50H0z"/>
        <g fill="#FFF" transform="translate(15 18)">
            <rect width="20" height="3" y="12" rx="1.5"/>
            <rect width="20" height="3" y="6" rx="1.5"/>
            <rect width="20" height="3" rx="1.5"/>
        </g>
    </g>
</svg>
