<svg xmlns="http://www.w3.org/2000/svg" width="48" height="48" viewBox="0 0 48 48">
    <g fill="none" fill-rule="evenodd">
        <rect width="48" height="48" fill="#ED6C23" rx="24"/>
        <rect width="48" height="48" rx="2"/>
        <path fill="#FFF" fill-rule="nonzero" d="M23.8 15.551a2.512 2.512 0 0 1 2.509 2.51 2.511 2.511 0 0 1-2.509 2.507 2.512 2.512 0 0 1-2.509-2.508 2.512 2.512 0 0 1 2.51-2.509zm0 8.567a6.064 6.064 0 0 0 6.06-6.058A6.066 6.066 0 0 0 23.8 12a6.066 6.066 0 0 0-6.06 6.06 6.065 6.065 0 0 0 6.06 6.058zm2.452 4.943a11.346 11.346 0 0 0 3.518-1.458 1.775 1.775 0 0 0-1.891-3.006 7.693 7.693 0 0 1-8.158 0 1.773 1.773 0 0 0-2.448.559 1.775 1.775 0 0 0 .556 2.447 11.367 11.367 0 0 0 3.519 1.458l-3.388 3.387a1.776 1.776 0 0 0 2.512 2.51l3.327-3.328 3.33 3.329a1.774 1.774 0 1 0 2.51-2.51l-3.387-3.388z"/>
    </g>
</svg>
