<svg xmlns="http://www.w3.org/2000/svg" width="48" height="48" viewBox="0 0 48 48">
    <g fill="none" fill-rule="evenodd">
        <rect width="46" height="46" x="1" y="1" stroke="#60B7E6" stroke-width="2" rx="23"/>
        <path d="M0 0h48v48H0z"/>
        <path fill="#60B7E6" fill-rule="nonzero" d="M35.12 17.13a9.035 9.035 0 0 1-2.606.712 4.535 4.535 0 0 0 2-2.511 9.067 9.067 0 0 1-2.888 1.103 4.54 4.54 0 0 0-7.73 4.14 12.893 12.893 0 0 1-9.357-4.742 4.511 4.511 0 0 0-.612 2.28c0 1.575.802 2.968 2.02 3.78a4.564 4.564 0 0 1-2.06-.566v.055a4.54 4.54 0 0 0 3.644 4.45 4.515 4.515 0 0 1-2.05.081 4.538 4.538 0 0 0 4.24 3.148A9.125 9.125 0 0 1 13 30.94a12.851 12.851 0 0 0 6.957 2.04c8.346 0 12.912-6.917 12.912-12.912 0-.196-.005-.391-.015-.587a9.102 9.102 0 0 0 2.266-2.35z"/>
    </g>
</svg>
