<svg xmlns="http://www.w3.org/2000/svg" width="48" height="48" viewBox="0 0 48 48">
    <g fill="none" fill-rule="evenodd">
        <rect width="48" height="48" fill="#3B5F8E" rx="24"/>
        <rect width="48" height="48" rx="2"/>
        <path fill="#FFF" fill-rule="nonzero" d="M24.595 31.255c.847 0 .847-1.221.847-1.695 0-.847.848-1.695 1.695-1.695.848 0 2.301 1.454 3.39 2.543.848.847.848.847 1.695.847h2.543s1.695-.064 1.695-1.695c0-.53-.58-1.428-2.543-3.39-1.695-1.695-2.564-.82 0-4.237 1.562-2.082 2.699-3.968 2.504-4.512-.186-.52-4.53-1.346-5.046-.573-1.695 2.542-2.006 3.165-2.543 4.237-.847 1.695-.93 2.543-1.695 2.543-.77 0-.847-1.645-.847-2.543 0-2.802.406-4.783-.848-5.085H22.9c-1.365 0-2.543.848-2.543.848s-1.051.82-.847.847c.252.034 1.695-.35 1.695.848v1.695s.008 3.39-.848 3.39c-.847 0-2.542-3.39-4.237-5.933-.665-.998-.848-.847-1.695-.847-.909 0-1.694.035-2.543.035-.847 0-.956.54-.847.812 1.695 4.238 2.913 6.899 6.133 10.251 2.954 3.076 4.927 3.24 6.58 3.31.423.017 0 0 .847 0z"/>
    </g>
</svg>
