<svg xmlns="http://www.w3.org/2000/svg" width="60" height="60" viewBox="0 0 60 60">
    <g fill="none" fill-rule="evenodd">
        <path fill="#EDF5F8" fill-opacity=".5" d="M0 0h60v60H0z"/>
        <path fill="#135BA7" d="M32.121 31.207l5.657-5.657a1.5 1.5 0 0 0-2.121-2.121L30 29.086l-5.657-5.657a1.5 1.5 0 0 0-2.121 2.121l5.657 5.657-5.657 5.657a1.5 1.5 0 0 0 2.121 2.121L30 33.328l5.657 5.657a1.5 1.5 0 0 0 2.121-2.121l-5.657-5.657z"/>
    </g>
</svg>
