<svg xmlns="http://www.w3.org/2000/svg" width="10" height="10" viewBox="0 0 10 10">
    <path fill="#B5D9FF" fill-rule="evenodd" d="M6.697 5l2.546-2.546A1.2 1.2 0 0 0 7.546.757L5 3.303 2.454.757A1.2 1.2 0 0 0 .757 2.454L3.303 5 .757 7.546a1.2 1.2 0 1 0 1.697 1.697L5 6.697l2.546 2.546a1.2 1.2 0 1 0 1.697-1.697L6.697 5z"/>
</svg>
